233077 770203 509
366704 805946 509
628699 428494 509
12740 601860 470
98474 369580 443
382518 872762 525
435468 727155 509
638560 758199 504
287817 987719 525
649101 774022 504
580494 350044 470
478805 78996 449
995900 728382 525
474190 464810 413
462470 790910 509
773597 323590 509
558919 363941 470
360583 16330 443
455590 35164 449
485581 753485 509
261333 99672 443
426285 455519 400
342531 195519 443
151841 538977 470
807278 800334 406
478220 396877 449
663773 943749 525
758453 852145 525
737642 971203 525
569964 906259 525
989780 730115 525
616882 485583 470
796387 736668 468
993928 228546 525
149380 914241 525
353473 883015 525
224771 596017 470
685138 282516 509
743211 831809 468
294791 318607 384
71619 214833 383
408195 787411 509
542502 111685 470
644241 806163 504
569359 359914 470
92381 194236 383
820651 704661 468
381118 377268 379
248442 784156 509
691910 8287 509
827048 603531 509
837054 12659 509
164724 584788 470
603427 371819 470
758755 749152 424
735499 576795 509
290546 970035 525
145508 457357 449
598602 789277 509
198528 375209 443
605663 780146 509
514211 25772 470
225484 738493 509
796245 933679 525
344705 634083 509
136886 943417 525
245930 59332 443
642160 706549 504
747478 262785 509
394994 536731 470
409840 218659 443
168445 626790 509
402935 729347 509
685573 938373 525
792126 885662 525
435894 571988 470
469259 140397 449
539499 186542 470
398955 526632 470
664798 561826 509
568590 149214 470
296516 835635 509
217614 940606 525
455303 332227 449
933158 952945 507
380339 410946 449
923775 200412 525
74228 769616 509
595824 345687 470
35869 630377 509
546432 362782 470
782380 818910 468
326596 19389 443
846929 314846 525
385566 326321 441
179845 692532 509
568863 213144 470
469167 843835 525
679388 393638 509
102562 769768 509
977602 550277 525
204342 421027 449
93621 631252 509
380737 610399 470
492261 766744 509
229723 54224 386
894865 929220 476
753031 447640 509
82201 193709 383
524065 195453 470
297691 946159 525
852467 247266 525
656373 202689 509
694242 260576 509
709015 734963 411
277669 187169 443
60283 220468 386
689267 327594 509
36906 664596 509
270031 495781 449
648805 3218 509
220353 943387 525
880742 435436 525
535907 687001 509
2539 384019 443
179905 478261 449
982031 833430 525
473189 501364 426
496014 782107 509
324786 226525 443
46116 879881 525
650145 149555 509
729594 828513 468
388545 235076 441
544769 102397 470
607039 68840 470
457114 749356 509
580277 410158 470
827955 706517 468
451583 584662 470
307765 868920 525
485994 87374 449
834045 440324 509
244928 743960 509
712643 262520 509
97124 25605 351
81311 949235 525
257901 336116 407
867577 489419 525
366871 905152 525
291822 262312 407
158803 92049 383
902691 640768 525
658144 27833 509
428130 326956 449
637250 473280 509
448554 243373 449
252681 791579 509
583959 196624 470
664969 410017 509
823597 949828 525
207180 657331 509
596133 741522 509
993140 915612 507
790897 621093 509
313025 734040 509
106534 985637 525
919740 480582 525
934870 680913 525
962849 263787 525
93293 526310 470
994560 906026 507
201667 222223 386
706349 839090 525
701212 45076 509
853320 832306 525
56865 882642 525
888063 817905 525
728756 272220 509
28483 859287 525
900086 842271 445
2559 536891 470
668181 249083 509
923152 348927 525
809244 648497 504
757600 934923 525
472158 559322 470
673875 855083 525
848759 533387 525
202109 136149 383
882701 428159 525
406670 207621 443
953899 494639 525
805335 106191 509
748177 173243 509
767542 656719 504
38894 660685 509
700937 132225 509
497465 687668 509
135710 244222 443
